{
  "data": [
    {
      "ledgerid": 25048,
      "ledgerdatetime": "2021-02-22 11:17:37",
      "transactionid": "\u5b58\u6b3e",
      "status": "\u65b0\u4ea4\u6613",
      "amount": "999.00",
      "type": "\u9000\u6c34"
    },
    {
      "ledgerid": 25006,
      "ledgerdatetime": "2020-12-22 11:08:00",
      "transactionid": "\u5b58\u6b3e",
      "status": "\u6210\u529f",
      "amount": "100.00",
      "type": "\u652f\u4ed8\u5b9d\u626b\u7801"
    },
    {
      "ledgerid": 24118,
      "ledgerdatetime": "2020-04-09 17:55:14",
      "transactionid": "\u5b58\u6b3e",
      "status": "\u65b0\u4ea4\u6613",
      "amount": "100.00",
      "type": "\u4e2d\u56fd\u519c\u4e1a\u94f6\u884c"
    },
    {
      "ledgerid": 24059,
      "ledgerdatetime": "2020-03-31 15:58:37",
      "transactionid": "\u5b58\u6b3e",
      "status": "\u65b0\u4ea4\u6613",
      "amount": "666.00",
      "type": "\u865a\u62df\u8d27\u5e01"
    },
    {
      "ledgerid": 24037,
      "ledgerdatetime": "2020-03-27 11:27:12",
      "transactionid": "\u5b58\u6b3e",
      "status": "\u65b0\u4ea4\u6613",
      "amount": "666.00",
      "type": "\u865a\u62df\u8d27\u5e01"
    },
    {
      "ledgerid": 24034,
      "ledgerdatetime": "2020-03-27 11:16:12",
      "transactionid": "\u5b58\u6b3e",
      "status": "\u65b0\u4ea4\u6613",
      "amount": "666.00",
      "type": "\u865a\u62df\u8d27\u5e01"
    },
    {
      "ledgerid": 3163,
      "ledgerdatetime": "2019-09-25 15:15:22",
      "transactionid": "\u5b58\u6b3e",
      "status": "\u62d2\u7d55",
      "amount": "100.00",
      "type": "\u7f51\u94f6"
    },
    {
      "ledgerid": 2678,
      "ledgerdatetime": "2019-09-17 17:17:58",
      "transactionid": "\u5b58\u6b3e",
      "status": "\u65b0\u4ea4\u6613",
      "amount": "100.00",
      "type": "\u8d2d\u5b9d\u652f\u4ed8"
    },
    {
      "ledgerid": 2677,
      "ledgerdatetime": "2019-09-17 17:16:39",
      "transactionid": "\u5b58\u6b3e",
      "status": "\u65b0\u4ea4\u6613",
      "amount": "50.00",
      "type": "CGP"
    }
  ],
  "current_page": 1,
  "per_page": 10,
  "from": 1,
  "to": 10,
  "last_page": 9,
  "next_page_url": "http:\/\/www.eg990.com\/api\/getTransaction?page=2",
  "prev_page_url": null,
  "total": 81
}